00000000 1
00000000 0
00000000 0
00000000 0
00000000 0
00000000 0
00000000 0
00000000 1
00000000 0
00000000 0
00000000 0
00000000 0
00000000 0
00100000 0
00000000 1
00000000 0
00000000 0
00000000 0
00000000 0
00000000 0
00200000 0
00000000 1
00000000 0
00000000 0
00000000 0
00000000 0
00000000 0
00300000 0
00000000 1
00000000 0
00000000 0
00000000 0
00000000 0
00000000 0
00400000 0
00000000 1
00000000 0
00000000 0
00000000 0
00000000 0
00000000 0
00500000 0
00000000 1
00000000 0
00000000 0
00000000 0
00000000 0
00000000 0
00600000 0
00000000 1
00000000 0
00000000 0
00000000 0
00000000 0
00000000 0
00700000 0
40000000 1
00000000 0
00000000 0
00000000 0
00000000 0
00000000 0
00000000 0
40000000 1
00000000 0
00000000 0
00000000 0
00000000 0
00000000 0
00100000 0
40000000 1
00000000 0
00000000 0
00000000 0
00000000 0
00000000 0
00200000 0
40000000 1
00000000 0
00000000 0
00000000 0
00000000 0
00000000 0
00300000 0
40000000 1
00000000 0
00000000 0
00000000 0
00000000 0
00000000 0
00400000 0
40000000 1
00000000 0
00000000 0
00000000 0
00000000 0
00000000 0
00500000 0
40000000 1
00000000 0
00000000 0
00000000 0
00000000 0
00000000 0
00600000 0
40200400 1
00501003 0
00801c06 0
40b02809 0
40e0340c 0
0110400f 0
00704c12 0
80000000 1
00000000 0
00000000 0
00000000 0
00000000 0
00000000 0
00000000 0
80000000 1
00000000 0
00000000 0
00000000 0
00000000 0
00000000 0
00100000 0
80000000 1
00000000 0
00000000 0
00000000 0
00000000 0
00000000 0
00200000 0
80000000 1
00000000 0
00000000 0
00000000 0
00000000 0
00000000 0
00300000 0
80000000 1
00000000 0
00000000 0
00000000 0
00000000 0
00000000 0
00400000 0
80000000 1
00000000 0
00000000 0
00000000 0
00000000 0
00000000 0
00500000 0
80000000 1
00000000 0
00000000 0
00000000 0
00000000 0
00000000 0
00600000 0
80000000 1
00000000 0
00000000 0
00000000 0
00000000 0
00000000 0
00700000 0
c0000000 1
00000000 0
00000000 0
00000000 0
00000000 0
00000000 0
00000000 0
c0000000 1
00000000 0
00000000 0
00000000 0
00000000 0
00000000 0
00100000 0
c0000000 1
00000000 0
00000000 0
00000000 0
00000000 0
00000000 0
00200000 0
c0000000 1
00000000 0
00000000 0
00000000 0
00000000 0
00000000 0
00300000 0
c0000000 1
00000000 0
00000000 0
00000000 0
00000000 0
00000000 0
00400000 0
c0000000 1
00000000 0
00000000 0
00000000 0
00000000 0
00000000 0
00500000 0
c0000000 1
00000000 0
00000000 0
00000000 0
00000000 0
00000000 0
00600000 0
c0000000 1
00000000 0
00000000 0
00000000 0
00000000 0
00000000 0
00700000 0
00000100 1
00000000 0
00000000 0
00000000 0
00000000 0
00000000 0
00000000 0
00000100 1
00000000 0
00000000 0
00000000 0
00000000 0
00000000 0
00100000 0
00000100 1
00000000 0
00000000 0
00000000 0
00000000 0
00000000 0
00200000 0
00000100 1
00000000 0
00000000 0
00000000 0
00000000 0
00000000 0
00300000 0
00000100 1
00000000 0
00000000 0
00000000 0
00000000 0
00000000 0
00400000 0
00000100 1
00000000 0
00000000 0
00000000 0
00000000 0
00000000 0
00500000 0
00000100 1
00000000 0
00000000 0
00000000 0
00000000 0
00000000 0
00600000 0
00000100 1
00000000 0
00000000 0
00000000 0
00000000 0
00000000 0
00700000 0
40000100 1
00000000 0
00000000 0
00000000 0
00000000 0
00000000 0
00000000 0
40000100 1
00000000 0
00000000 0
00000000 0
00000000 0
00000000 0
00100000 0
40000100 1
00000000 0
00000000 0
00000000 0
00000000 0
00000000 0
00200000 0
40000100 1
00000000 0
00000000 0
00000000 0
00000000 0
00000000 0
00300000 0
40000100 1
00000000 0
00000000 0
00000000 0
00000000 0
00000000 0
00400000 0
40000100 1
00000000 0
00000000 0
00000000 0
00000000 0
00000000 0
00500000 0
40000100 1
00000000 0
00000000 0
00000000 0
00000000 0
00000000 0
00600000 0
40000100 1
00000000 0
00000000 0
00000000 0
00000000 0
00000000 0
00700000 0
80000100 1
00000000 0
00000000 0
00000000 0
00000000 0
00000000 0
00000000 0
80000100 1
00000000 0
00000000 0
00000000 0
00000000 0
00000000 0
00100000 0
80000100 1
00000000 0
00000000 0
00000000 0
00000000 0
00000000 0
00200000 0
80000100 1
00000000 0
00000000 0
00000000 0
00000000 0
00000000 0
00300000 0
80000100 1
00000000 0
00000000 0
00000000 0
00000000 0
00000000 0
00400000 0
80000100 1
00000000 0
00000000 0
00000000 0
00000000 0
00000000 0
00500000 0
80000100 1
00000000 0
00000000 0
00000000 0
00000000 0
00000000 0
00600000 0
80000100 1
00000000 0
00000000 0
00000000 0
00000000 0
00000000 0
00700000 0
c0000100 1
00000000 0
00000000 0
00000000 0
00000000 0
00000000 0
00000000 0
c0000100 1
00000000 0
00000000 0
00000000 0
00000000 0
00000000 0
00100000 0
c0000100 1
00000000 0
00000000 0
00000000 0
00000000 0
00000000 0
00200000 0
c0000100 1
00000000 0
00000000 0
00000000 0
00000000 0
00000000 0
00300000 0
c0000100 1
00000000 0
00000000 0
00000000 0
00000000 0
00000000 0
00400000 0
c0000100 1
00000000 0
00000000 0
00000000 0
00000000 0
00000000 0
00500000 0
c0000100 1
00000000 0
00000000 0
00000000 0
00000000 0
00000000 0
00600000 0
c0000100 1
00000000 0
00000000 0
00000000 0
00000000 0
00000000 0
00700000 0
00000200 1
00000000 0
00000000 0
00000000 0
00000000 0
00000000 0
00000000 0
