Infrastructure/xml/L1CaloEfex.xml Infrastructure/address_table/ipbus_decode_L1CaloEfex.vhd

Infrastructure/xml/efex_aurora.xml Infrastructure/address_table/ipbus_decode_efex_aurora.vhd
Infrastructure/xml/efex_cntrl_infrastructure.xml Infrastructure/address_table/ipbus_decode_efex_cntrl_infrastructure.vhd
Infrastructure/xml/efex_cntrl_mgt_channel.xml Infrastructure/address_table/ipbus_decode_efex_cntrl_mgt_channel.vhd
Infrastructure/xml/efex_cntrl_mgt_quad.xml Infrastructure/address_table/ipbus_decode_efex_cntrl_mgt_quad.vhd
Infrastructure/xml/efex_cntrl_mgt.xml Infrastructure/address_table/ipbus_decode_efex_cntrl_mgt.vhd
Infrastructure/xml/efex_cntrl_common_id_version.xml Infrastructure/address_table/ipbus_decode_efex_cntrl_common_id_version.vhd
Infrastructure/xml/efex_mgt_channel.xml Infrastructure/address_table/ipbus_decode_efex_mgt_channel.vhd
Infrastructure/xml/efex_mgt_quad.xml Infrastructure/address_table/ipbus_decode_efex_mgt_quad.vhd

